A15GT370039L,3,06,4,4,HARNAM SINGH        ,HARNAM SINGH             ,+00151.00,+0076.00,+0012.00,+00270.00,+0005.00,+0000000,+00000275,17/06/18,15/06/2018,000000000,0,17/06/2018,15/06/2018,+0000000,+0002.00,+0000000
A15GT370040L,3,06,4,4,HARNAM SINGH        ,HARNAM SINGH             ,+12183.00,+1671.00,+0257.00,+14790.00,+0296.00,+0000000,+00015086,17/06/18,15/06/2018,000000000,0,17/06/2018,15/06/2018,+0000000,+0036.00,+0000000
A15GT370041L,3,06,4,4,HARNAM SINGH        ,HARNAM SINGH             ,+00519.00,+0160.00,+0025.00,+00770.00,+0015.00,+0000000,+00000785,17/06/18,15/06/2018,000000000,0,17/06/2018,15/06/2018,+0000000,+0004.00,+0000000
A15GT370042L,3,06,4,4,HARNAM SINGH        ,HARNAM SINGH             ,+12068.00,+1668.00,+0257.00,+14670.00,+0293.00,+0000000,+00014963,17/06/18,15/06/2018,000000000,0,17/06/2018,15/06/2018,+0000000,+0036.00,+0000000
A15GT370043L,3,06,4,4,HARNAM SINGH        ,HARNAM SINGH             ,+00870.00,+0237.00,+0036.00,+01240.00,+0025.00,+0000000,+00001265,17/06/18,15/06/2018,000000000,0,17/06/2018,15/06/2018,+0000000,+0006.00,+0000000
A15GT370044L,3,06,4,4,HARNAM SINGH        ,HARNAM SINGH             ,+11782.00,+1672.00,+0257.00,+14390.00,+0288.00,+0000000,+00014678,17/06/18,15/06/2018,000000000,0,17/06/2018,15/06/2018,+0000000,+0036.00,+0000000
A15GT370072L,3,06,4,4,HARNAM SINGH        ,HARNAM SINGH             ,+10098.00,+1668.00,+0257.00,+12700.00,+0254.00,+0000000,+00012954,17/06/18,15/06/2018,000000000,0,17/06/2018,15/06/2018,+0000000,+0036.00,+0000000
