3161,ATTOWAL SUB DIVISION,H51GC10,70000000072223603,,PCH02F63L003001_G1P01,H51GT510001N,8002342058,P.NATIONA BANK  .,,P.NATIONA BANK,  KANGAR ,NRS,1,N,N,00/00/0000,,,0,6,1 ,0,N,4002362919,10356542,Others,100003740162,1.00,1.00,0.00,06,,,3,1,0.000,N,00/00/0000,0.000,LT,LT,0,0,0,28/08/2017,01/08/2017,01/08/2017,67205.000,0.000,0.000,O,1,N,00/00/0000,0.000,0.000,0.00,0.00,0.00,0.00,0.000,0.000,N,00/00/0000,0.000,0.000,0,N,00/00/0000,N,25.00,0.00,,31/12/9999,0.00,0,0.00,6.00,0.00,00/00/0000,00/00/0000,8000,800,80,5000,500,50,0.00,0.00,1.00,0.00,0.00,0.00,0.00,0.00,0.00,0.00,0.00,0.00,0.00,0.00,0.00,0.00,0.00,882.000,709.000,696.000,622.000,487.000,1342.000,3968.000,713.793,0.00,0.00,0.00,0,0.90,0.000,0.020,0.000,0.000,0.000,20/09/2017,0.000,0.40,25,12,0.000,0.000,0.000,0.000,1912,PAID,,,0.00,0.00,N,,0.000,00/00/0000,0.000,00/00/0000,0.000,00/00/0000,I,E,6.25,N,N,N,CH02F63L,0,,Y,Y,1 
3161,ATTOWAL SUB DIVISION,H51GC10,70000000072223606,,PCH02F63L003001_G1P01,H51GT510002W,8002342059,BALBEER  KUMAR,,PIARE LAL,  BASSI DAULAT KHAN ,NRS,1,N,N,00/00/0000,,,0,6,1 ,0,N,4002362920,828598,Others,100003740163,1.00,1.00,0.00,06,,,3,.8,0.000,N,00/00/0000,0.000,LT,LT,0,0,0,28/08/2017,01/08/2017,01/08/2017,8686.000,0.000,0.000,O,1,N,00/00/0000,0.000,0.000,0.00,0.00,0.00,0.00,0.000,0.000,N,00/00/0000,0.000,0.000,0,N,00/00/0000,N,25.00,0.00,,31/12/9999,0.00,0,0.00,6.00,0.00,00/00/0000,00/00/0000,10000,800,80,5000,500,50,0.00,0.00,1.00,0.00,0.00,0.00,0.00,0.00,0.00,11.00,40.00,0.00,0.00,0.00,0.00,300.00-,0.00,66.000,0.000,0.000,107.000,80.000,152.000,317.787,86.897,0.00,0.00,0.00,0,0.90,0.000,0.020,0.000,0.000,0.000,20/09/2017,0.000,0.30,30,8,0.000,0.000,0.000,0.000,1912,PAID,,,0.00,300.00,N,,0.000,00/00/0000,0.000,00/00/0000,0.000,00/00/0000,I,E,6.25,N,N,N,CH02F63L,0,,Y,Y,1
3161,ATTOWAL SUB DIVISION,H51GC10,70000000072223611,,PCH02F63L003001_G1P01,H51GT510004F,8002342061,GOVT HIGH SCHOOL  .,,ATTOWAL,  ATTOWAL ,DS,GEN,N,N,00/00/0000,,,0,6,2,0,N,4002362922,757791,Others,100003740165,1.00,1.00,0.00,05,,,3,.95,0.000,N,00/00/0000,0.000,LT,LT,0,0,0,28/08/2017,01/08/2017,01/08/2017,63688.000,0.000,0.000,O,1,N,00/00/0000,0.000,0.000,0.00,0.00,0.00,0.00,0.000,0.000,N,00/00/0000,0.000,0.000,0,N,00/00/0000,N,25.00,0.00,,31/12/9999,0.00,0,0.00,6.00,0.00,00/00/0000,00/00/0000,6000,800,80,5000,500,50,0.00,0.00,3.00,0.00,0.00,0.00,0.00,0.00,0.00,-30.00,0.00,0.00,0.00,0.00,0.00,60.00-,0.00,845.000,379.000,815.000,715.000,351.000,548.000,3352.484,1065.000,0.00,0.00,0.00,0,0.90,0.000,0.020,0.000,0.000,0.000,20/09/2017,0.000,0.30,30,8,0.000,0.000,0.000,0.000,1912,PAID,,,0.00,100.00,N,,0.000,00/00/0000,0.000,00/00/0000,0.000,00/00/0000,I,E,6.25,N,N,N,CH02F63L,0,,Y,Y,1
3161,ATTOWAL SUB DIVISION,H51GC10,70000000072223613,,PCH02F63L003001_G1P01,H51GT510005K,8002342062,ABNASHI  SINGH,,RAM KISHAN,  ATTOWAL ,NRS,CGR,N,N,00/00/0000,,,0,6,1,0,N,4002362923,2790679,Others,100003740166,1.00,1.00,0.00,06,,,3,14.180,0.000,N,00/00/0000,0.000,LT,LT,0,0,0,28/08/2017,01/08/2017,01/08/2017,86009.000,0.000,0.000,O,1,N,00/00/0000,0.000,0.000,0.00,0.00,0.00,0.00,0.000,0.000,N,00/00/0000,0.000,0.000,0,N,00/00/0000,N,25.00,4.00,,31/12/9999,0.00,0,0.00,6.00,0.00,00/00/0000,00/00/0000,4300,800,80,5000,500,50,0.00,0.00,4.00,0.00,0.00,0.00,0.00,0.00,0.00,-10.00,0.00,0.00,0.00,0.00,0.00,180.00-,0.00,2089.000,2138.000,1868.000,1466.000,829.000,1477.000,9030.033,1661.379,0.00,0.00,0.00,0,0.90,0.000,0.020,0.000,0.000,0.000,20/09/2017,0.000,0.40,25,12,0.000,0.000,0.000,0.000,1912,PAID,,,0.00,300.00,N,,0.000,00/00/0000,0.000,00/00/0000,0.000,00/00/0000,I,E,6.25,N,N,N,CH02F63L,0,,Y,Y,1
3161,ATTOWAL SUB DIVISION,H51GC10,70000000072223619,,PCH02F63L003001_G1P01,H51GT510006M,8002342063,HUSAN  LAL,,MUKAND LAL,  ATTOWAL ,NRS,BO,N,N,00/00/0000,,,0,6,1,0,N,4002362924,714668,Others,100003740167,1.00,1.00,0.00,05,,,3,10.440,0.000,N,00/00/0000,0.000,LT,LT,0,0,0,28/08/2017,01/08/2017,01/08/2017,32923.000,0.000,0.000,O,1,N,00/00/0000,0.000,0.000,0.00,0.00,0.00,0.00,0.000,0.000,N,00/00/0000,0.000,0.000,0,N,00/00/0000,N,25.00,0.00,,31/12/9999,0.00,0,0.00,6.00,0.00,00/00/0000,00/00/0000,7200,800,80,5000,500,50,0.00,0.00,4.00,0.00,0.00,0.00,0.00,0.00,0.00,-10.00,0.00,0.00,0.00,0.00,0.00,500.00-,0.00,461.000,499.000,433.000,369.000,344.000,879.000,2502.968,337.500,0.00,0.00,0.00,0,0.90,0.000,0.020,0.000,0.000,0.000,20/09/2017,0.000,0.40,25,12,0.000,0.000,0.000,0.000,1912,PAID,,,0.00,600.00,N,,0.000,00/00/0000,0.000,00/00/0000,0.000,00/00/0000,I,E,6.25,N,N,N,CH02F63L,0,,Y,Y,1
3161,ATTOWAL SUB DIVISION,H51GC10,70000000072223624,,PCH02F63L003001_G1P01,H51GT510007P,8002342064,SANT BALWANT SINGH,,JAWALA SINGH,  ATTOWAL ,NRS,CGO,N,N,00/00/0000,,,0,6,1,0,N,4002362925,1118490,Others,100003740168,1.00,1.00,0.00,06,,,3,10.730,0.000,N,00/00/0000,0.000,LT,LT,0,0,0,28/08/2017,02/08/2017,02/08/2017,9655.000,0.000,0.000,S,1,N,00/00/0000,0.000,0.000,0.00,0.00,0.00,0.00,0.000,0.000,N,00/00/0000,0.000,0.000,0,N,00/00/0000,N,25.00,0.00,,31/12/9999,0.00,0,0.00,6.00,0.00,00/00/0000,00/00/0000,4000,800,80,5000,500,50,0.00,0.00,1.00,2850.00,0.00,0.00,0.00,0.00,0.00,5035.00,170.00,0.00,13913.00,653.00,0.00,1500.00-,0.00,48.000,29.000,42.000,43.000,46.000,55.000,0.000,88.000,0.00,0.00,0.00,0,0.90,0.000,0.020,0.000,0.000,0.000,20/09/2017,0.000,0.30,30,8,0.000,0.000,0.000,0.000,1912,PAID,,,2850.00,600.00,N,,0.000,00/00/0000,0.000,00/00/0000,0.000,00/00/0000,I,E,6.25,N,N,N,CH02F63L,0,,Y,Y,1 
3161,ATTOWAL SUB DIVISION,H51CB44,70000000072385392,,PDL02F63L003001_G1P01,H51CB440004W,8000953629,CHAMBEL  SINGH,,KESAR SINGH,  HARKHOWAL ,DS,BC,N,N,00/00/0000,,,0,3,2,4,N,4000964117,2141629,Others,100002173675,1.00,1.00,0.00,05,,,1,0.500,0.000,N,00/00/0000,0.000,LT,LT,0,0,0,12/09/2017,03/07/2017,03/07/2017,11531.000,0.000,0.000,O,2,N,00/00/0000,0.000,0.000,0.00,0.00,0.00,0.00,0.000,0.000,N,00/00/0000,0.000,0.000,0,N,00/00/0000,N,8.00,0.00,,31/12/9999,0.00,0,0.00,4.00,0.00,00/00/0000,00/00/0000,1000,800,80,5000,500,50,0.00,0.00,3.00,0.00,0.00,0.00,0.00,0.00,0.00,0.00,0.00,0.00,0.00,0.00,0.00,1080.00-,0.00,441.000,358.000,208.000,197.000,417.000,435.000,1000.067,427.869,0.00,0.00,0.00,0,0.90,0.000,0.020,0.000,0.000,0.000,21/09/2017,0.000,0.30,30,8,0.000,0.000,0.000,0.000,1912,PAID,,,0.00,300.00,N,,0.000,00/00/0000,0.000,00/00/0000,0.000,00/00/0000,I,E,6.25,N,N,N,DL02F63L,4000,3001,Y,Y,1
3161,ATTOWAL SUB DIVISION,H51CB44,70000000072385394,,PDL02F63L003001_G1P01,H51CB440007K,8000953630,CHARAN  SINGH,,MALLA SINGH,  HARKHOWAL ,DS,WSD,N,N,00/00/0000,,,0,3,2,4,N,4000964118,1208094,Others,100002173676,1.00,1.00,0.00,05,,,1,0.400,0.000,N,00/00/0000,0.000,LT,LT,0,0,0,12/09/2017,26/12/2014,03/07/2017,499.000,0.000,0.000,I,2,N,00/00/0000,0.000,0.000,0.00,0.00,0.00,0.00,0.000,0.000,N,00/00/0000,0.000,0.000,0,N,00/00/0000,N,8.00,0.00,,31/12/9999,0.00,0,0.00,4.00,0.00,00/00/0000,00/00/0000,7600,800,80,5000,500,50,0.00,0.00,-4.00,911.00,0.00,0.00,4021.00,686.00,0.00,909.00,96.00,0.00,3288.00,546.00,0.00,180.00-,0.00,59.000,59.000,58.000,59.000,60.000,517.000,0.000,57.551,0.00,0.00,0.00,0,0.90,0.000,0.020,0.000,0.000,0.000,21/09/2017,0.000,0.30,30,8,885.000,0.000,0.000,0.000,1912,PAID,,,911.00,300.00,N,,0.000,00/00/0000,0.000,00/00/0000,0.000,00/00/0000,I,E,6.25,N,N,N,DL02F63L,300,2500,Y,Y,1 
3161,ATTOWAL SUB DIVISION,H51CB44,70000000072385396,,PDL02F63L003001_G1P01,H51CB440010K,8000953631,HAZARA  SINGH,,KESAR SINGH,  HARKHOWAL ,DS,BPL,N,N,00/00/0000,,,0,3,2,4,N,4000964119,1783403,Others,100002173677,1.00,1.00,0.00,05,,,1,0.99,0.000,N,00/00/0000,0.000,LT,LT,0,0,0,12/09/2017,03/07/2017,03/07/2017,16346.000,0.000,0.000,O,2,N,00/00/0000,0.000,0.000,0.00,0.00,0.00,0.00,0.000,0.000,N,00/00/0000,0.000,0.000,0,N,00/00/0000,N,8.00,0.00,,31/12/9999,0.00,0,0.00,4.00,0.00,00/00/0000,00/00/0000,6700,800,80,5000,500,50,0.00,0.00,-4.00,0.00,0.00,0.00,0.00,0.00,0.00,0.00,0.00,0.00,0.00,0.00,0.00,360.00-,0.00,971.000,547.000,453.000,280.000,708.000,945.000,1955.900,929.508,0.00,0.00,0.00,0,0.90,0.000,0.020,0.000,0.000,0.000,21/09/2017,0.000,0.30,30,8,0.000,0.000,0.000,0.000,1912,PAID,,,0.00,300.00,N,,0.000,00/00/0000,0.000,00/00/0000,0.000,00/00/0000,I,E,6.25,N,N,N,DL02F63L,256,4000,Y,Y,1
3161,ATTOWAL SUB DIVISION,H51CB44,70000000072385398,,PDL02F63L003001_G1P01,H51CB440011M,8000953632,GIAN  SINGH,,JAWALA SINGH,  HARKHOWAL ,DS,FF,N,N,00/00/0000,,,0,3,2,4,N,4000964120,45601,Others,100002173678,1.00,1.00,0.00,04,,,1,0.5,0.000,N,00/00/0000,0.000,LT,LT,0,0,0,12/09/2017,03/07/2017,03/07/2017,1847.000,0.000,0.000,O,2,N,00/00/0000,0.000,0.000,0.00,0.00,0.00,0.00,0.000,0.000,N,00/00/0000,0.000,0.000,0,N,00/00/0000,N,8.00,0.00,,31/12/9999,0.00,0,0.00,4.00,0.00,00/00/0000,00/00/0000,5500,800,80,5000,500,50,0.00,0.00,-3.00,0.00,0.00,0.00,0.00,0.00,0.00,0.00,0.00,0.00,0.00,0.00,0.00,360.00-,0.00,420.000,270.000,123.000,142.000,338.000,323.000,808.900,317.705,0.00,0.00,0.00,0,0.90,0.000,0.020,0.000,0.000,0.000,21/09/2017,0.000,0.30,30,8,0.000,0.000,0.000,0.000,1912,PAID,,,0.00,300.00,N,,0.000,00/00/0000,0.000,00/00/0000,0.000,00/00/0000,I,M,6.25,N,N,N,DL02F63L,0,,Y,Y,1
3161,ATTOWAL SUB DIVISION,H51CB44,70000000072385399,,PDL02F63L003001_G1P01,H51CB440011F,8000953633,GIA  SINGH,,JAWALA SINGH,  HARKHOWAL ,DS,BE,N,N,00/00/0000,,,0,3,2,4,N,4000964121,45601,Others,100002173678,1.00,1.00,0.00,04,,,1,0.5,0.000,N,00/00/0000,0.000,LT,LT,0,1,0,12/09/2017,03/07/2017,03/07/2017,1847.000,0.000,0.000,O,2,N,00/00/0000,0.000,0.000,0.00,0.00,0.00,0.00,0.000,0.000,N,00/00/0000,0.000,0.000,0,N,00/00/0000,N,8.00,0.00,,31/12/9999,0.00,0,0.00,4.00,0.00,00/00/0000,00/00/0000,5500,800,80,5000,500,50,0.00,0.00,-3.00,0.00,0.00,0.00,0.00,0.00,0.00,0.00,0.00,0.00,0.00,0.00,0.00,360.00-,0.00,420.000,270.000,123.000,142.000,338.000,323.000,808.900,317.705,0.00,0.00,0.00,0,0.90,0.000,0.020,0.000,0.000,0.000,21/09/2017,0.000,0.30,30,8,0.000,0.000,0.000,0.000,1912,PAID,,,0.00,300.00,N,,0.000,00/00/0000,0.000,00/00/0000,0.000,00/00/0000,I,M,6.25,N,N,N,DL02F63L,0,,Y,Y,1
3161,ATTOWAL SUB DIVISION,H51GC10,80000000072223603,,PCH02F63L003001_G1P01,H51GT510001N,9002342058,P.NATIONA BANK  .,,P.NATIONA BANK,  KANGAR ,NRS,1,N,N,00/00/0000,,,0,6,1,0,N,4002362919,10356542,Others,100003740162,1.00,1.00,0.00,06,,,3,5,0.000,N,00/00/0000,0.000,LT,LT,0,0,0,28/08/2017,01/08/2017,01/08/2017,67205.000,0.000,0.000,O,1,N,00/00/0000,0.000,0.000,0.00,0.00,0.00,0.00,0.000,0.000,N,00/00/0000,0.000,0.000,0,N,00/00/0000,N,25.00,0.00,,31/12/9999,0.00,0,0.00,6.00,0.00,00/00/0000,00/00/0000,8000,800,80,5000,500,50,0.00,0.00,1.00,0.00,0.00,0.00,0.00,0.00,0.00,0.00,0.00,0.00,0.00,0.00,0.00,0.00,0.00,882.000,709.000,696.000,622.000,487.000,1342.000,3968.000,713.793,0.00,0.00,0.00,0,0.90,0.000,0.020,0.000,0.000,0.000,20/09/2017,0.000,0.40,25,12,0.000,0.000,0.000,0.000,1912,PAID,,,0.00,0.00,N,,0.000,00/00/0000,0.000,00/00/0000,0.000,00/00/0000,I,E,6.25,N,N,N,CH02F63L,0,,Y,Y,1 
3161,ATTOWAL SUB DIVISION,H51GC10,90000000072223606,,PCH02F63L003001_G1P01,H51GT510002W,1002342059,BALBEER  KUMAR,,PIARE LAL,  BASSI DAULAT KHAN ,NRS,1,N,N,00/00/0000,,,0,6,1,0,N,4002362920,828598,Others,100003740163,1.00,1.00,0.00,06,,,3,8,0.000,N,00/00/0000,0.000,LT,LT,0,0,0,28/08/2017,01/08/2017,01/08/2017,8686.000,0.000,0.000,O,1,N,00/00/0000,0.000,0.000,0.00,0.00,0.00,0.00,0.000,0.000,N,00/00/0000,0.000,0.000,0,N,00/00/0000,N,25.00,0.00,,31/12/9999,0.00,0,0.00,6.00,0.00,00/00/0000,00/00/0000,10000,800,80,5000,500,50,0.00,0.00,1.00,0.00,0.00,0.00,0.00,0.00,0.00,11.00,40.00,0.00,0.00,0.00,0.00,300.00-,0.00,66.000,0.000,0.000,107.000,80.000,152.000,317.787,86.897,0.00,0.00,0.00,0,0.90,0.000,0.020,0.000,0.000,0.000,20/09/2017,0.000,0.30,30,8,0.000,0.000,0.000,0.000,1912,PAID,,,0.00,300.00,N,,0.000,00/00/0000,0.000,00/00/0000,0.000,00/00/0000,I,E,6.25,N,N,N,CH02F63L,0,,Y,Y,1
3161,ATTOWAL SUB DIVISION,H51GC10,10000000072223611,,PCH02F63L003001_G1P01,H51GT510004F,2002342061,GOVT HIGH SCHOOL  .,,ATTOWAL,  ATTOWAL ,DS,GEN,N,N,00/00/0000,,,0,6,2,0,N,4002362922,757791,Others,100003740165,1.00,1.00,0.00,05,,,3,.95,0.000,N,00/00/0000,0.000,LT,LT,0,0,0,28/08/2017,01/08/2017,01/08/2017,63688.000,0.000,0.000,O,1,N,00/00/0000,0.000,0.000,0.00,0.00,0.00,0.00,0.000,0.000,N,00/00/0000,0.000,0.000,0,N,00/00/0000,N,25.00,0.00,,31/12/9999,0.00,0,0.00,6.00,0.00,00/00/0000,00/00/0000,6000,800,80,5000,500,50,0.00,0.00,3.00,0.00,0.00,0.00,0.00,0.00,0.00,-30.00,0.00,0.00,0.00,0.00,0.00,60.00-,0.00,845.000,379.000,815.000,715.000,351.000,548.000,3352.484,1065.000,0.00,0.00,0.00,0,0.90,0.000,0.020,0.000,0.000,0.000,20/09/2017,0.000,0.30,30,8,0.000,0.000,0.000,0.000,1912,PAID,,,0.00,100.00,N,,0.000,00/00/0000,0.000,00/00/0000,0.000,00/00/0000,I,E,6.25,N,N,N,CH02F63L,0,,Y,Y,1
3161,ATTOWAL SUB DIVISION,H51GC10,30000000072223613,,PCH02F63L003001_G1P01,H51GT510005K,4002342062,ABNASHI  SINGH,,RAM KISHAN,  ATTOWAL ,NRS,CGR,N,N,00/00/0000,,,0,6,1,0,N,4002362923,2790679,Others,100003740166,1.00,1.00,0.00,06,,,3,14.180,0.000,N,00/00/0000,0.000,LT,LT,0,0,0,28/08/2017,01/08/2017,01/08/2017,86009.000,0.000,0.000,O,1,N,00/00/0000,0.000,0.000,0.00,0.00,0.00,0.00,0.000,0.000,N,00/00/0000,0.000,0.000,0,N,00/00/0000,N,25.00,4.00,,31/12/9999,0.00,0,0.00,6.00,0.00,00/00/0000,00/00/0000,4300,800,80,5000,500,50,0.00,0.00,4.00,0.00,0.00,0.00,0.00,0.00,0.00,-10.00,0.00,0.00,0.00,0.00,0.00,180.00-,0.00,2089.000,2138.000,1868.000,1466.000,829.000,1477.000,9030.033,1661.379,0.00,0.00,0.00,0,0.90,0.000,0.020,0.000,0.000,0.000,20/09/2017,0.000,0.40,25,12,0.000,0.000,0.000,0.000,1912,PAID,,,0.00,300.00,N,,0.000,00/00/0000,0.000,00/00/0000,0.000,00/00/0000,I,E,6.25,N,N,N,CH02F63L,0,,Y,Y,1
3161,ATTOWAL SUB DIVISION,H51GC10,40000000072223619,,PCH02F63L003001_G1P01,H51GT510006M,5002342063,HUSAN  LAL,,MUKAND LAL,  ATTOWAL ,NRS,BO,N,N,00/00/0000,,,0,6,1,0,N,4002362924,714668,Others,100003740167,1.00,1.00,0.00,05,,,3,10.440,0.000,N,00/00/0000,0.000,LT,LT,0,0,0,28/08/2017,01/08/2017,01/08/2017,32923.000,0.000,0.000,O,1,N,00/00/0000,0.000,0.000,0.00,0.00,0.00,0.00,0.000,0.000,N,00/00/0000,0.000,0.000,0,N,00/00/0000,N,25.00,0.00,,31/12/9999,0.00,0,0.00,6.00,0.00,00/00/0000,00/00/0000,7200,800,80,5000,500,50,0.00,0.00,4.00,0.00,0.00,0.00,0.00,0.00,0.00,-10.00,0.00,0.00,0.00,0.00,0.00,500.00-,0.00,461.000,499.000,433.000,369.000,344.000,879.000,2502.968,337.500,0.00,0.00,0.00,0,0.90,0.000,0.020,0.000,0.000,0.000,20/09/2017,0.000,0.40,25,12,0.000,0.000,0.000,0.000,1912,PAID,,,0.00,600.00,N,,0.000,00/00/0000,0.000,00/00/0000,0.000,00/00/0000,I,E,6.25,N,N,N,CH02F63L,0,,Y,Y,1
3161,ATTOWAL SUB DIVISION,H51GC10,50000000072223624,,PCH02F63L003001_G1P01,H51GT510007P,6002342064,SANT BALWANT SINGH,,JAWALA SINGH,  ATTOWAL ,NRS,CGO,N,N,00/00/0000,,,0,6,1,0,N,4002362925,1118490,Others,100003740168,1.00,1.00,0.00,06,,,3,10.730,0.000,N,00/00/0000,0.000,LT,LT,0,0,0,28/08/2017,02/08/2017,02/08/2017,9655.000,0.000,0.000,S,1,N,00/00/0000,0.000,0.000,0.00,0.00,0.00,0.00,0.000,0.000,N,00/00/0000,0.000,0.000,0,N,00/00/0000,N,25.00,0.00,,31/12/9999,0.00,0,0.00,6.00,0.00,00/00/0000,00/00/0000,4000,800,80,5000,500,50,0.00,0.00,1.00,2850.00,0.00,0.00,0.00,0.00,0.00,5035.00,170.00,0.00,13913.00,653.00,0.00,1500.00-,0.00,48.000,29.000,42.000,43.000,46.000,55.000,0.000,88.000,0.00,0.00,0.00,0,0.90,0.000,0.020,0.000,0.000,0.000,20/09/2017,0.000,0.30,30,8,0.000,0.000,0.000,0.000,1912,PAID,,,2850.00,600.00,N,,0.000,00/00/0000,0.000,00/00/0000,0.000,00/00/0000,I,E,6.25,N,N,N,CH02F63L,0,,Y,Y,1 
3161,ATTOWAL SUB DIVISION,H51CB44,60000000072385392,,PDL02F63L003001_G1P01,H51CB440004W,1200953629,CHAMBEL  SINGH,,KESAR SINGH,  HARKHOWAL ,DS,BC,N,N,00/00/0000,,,0,3,2,4,N,4000964117,2141629,Others,100002173675,1.00,1.00,0.00,05,,,1,0.500,0.000,N,00/00/0000,0.000,LT,LT,0,0,0,12/09/2017,03/07/2017,03/07/2017,11531.000,0.000,0.000,O,2,N,00/00/0000,0.000,0.000,0.00,0.00,0.00,0.00,0.000,0.000,N,00/00/0000,0.000,0.000,0,N,00/00/0000,N,8.00,0.00,,31/12/9999,0.00,0,0.00,4.00,0.00,00/00/0000,00/00/0000,1000,800,80,5000,500,50,0.00,0.00,3.00,0.00,0.00,0.00,0.00,0.00,0.00,0.00,0.00,0.00,0.00,0.00,0.00,1080.00-,0.00,441.000,358.000,208.000,197.000,417.000,435.000,1000.067,427.869,0.00,0.00,0.00,0,0.90,0.000,0.020,0.000,0.000,0.000,21/09/2017,0.000,0.30,30,8,0.000,0.000,0.000,0.000,1912,PAID,,,0.00,300.00,N,,0.000,00/00/0000,0.000,00/00/0000,0.000,00/00/0000,I,E,6.25,N,N,N,DL02F63L,4000,3001,Y,Y,1
3161,ATTOWAL SUB DIVISION,H51CB44,80000000072385394,,PDL02F63L003001_G1P01,H51CB440007K,1300953630,CHARAN  SINGH,,MALLA SINGH,  HARKHOWAL ,DS,WSD,N,N,00/00/0000,,,0,3,2,4,N,4000964118,1208094,Others,100002173676,1.00,1.00,0.00,05,,,1,0.400,0.000,N,00/00/0000,0.000,LT,LT,0,0,0,12/09/2017,26/12/2014,03/07/2017,499.000,0.000,0.000,I,2,N,00/00/0000,0.000,0.000,0.00,0.00,0.00,0.00,0.000,0.000,N,00/00/0000,0.000,0.000,0,N,00/00/0000,N,8.00,0.00,,31/12/9999,0.00,0,0.00,4.00,0.00,00/00/0000,00/00/0000,7600,800,80,5000,500,50,0.00,0.00,-4.00,911.00,0.00,0.00,4021.00,686.00,0.00,909.00,96.00,0.00,3288.00,546.00,0.00,180.00-,0.00,59.000,59.000,58.000,59.000,60.000,517.000,0.000,57.551,0.00,0.00,0.00,0,0.90,0.000,0.020,0.000,0.000,0.000,21/09/2017,0.000,0.30,30,8,885.000,0.000,0.000,0.000,1912,PAID,,,911.00,300.00,N,,0.000,00/00/0000,0.000,00/00/0000,0.000,00/00/0000,I,E,6.25,N,N,N,DL02F63L,300,2500,Y,Y,1 
3161,ATTOWAL SUB DIVISION,H51CB44,90000000072385396,,PDL02F63L003001_G1P01,H51CB440010K,1400953631,HAZARA  SINGH,,KESAR SINGH,  HARKHOWAL ,DS,BPL,N,N,00/00/0000,,,0,3,2,4,N,4000964119,1783403,Others,100002173677,1.00,1.00,0.00,05,,,1,0.99,0.000,N,00/00/0000,0.000,LT,LT,0,0,0,12/09/2017,03/07/2017,03/07/2017,16346.000,0.000,0.000,O,2,N,00/00/0000,0.000,0.000,0.00,0.00,0.00,0.00,0.000,0.000,N,00/00/0000,0.000,0.000,0,N,00/00/0000,N,8.00,0.00,,31/12/9999,0.00,0,0.00,4.00,0.00,00/00/0000,00/00/0000,6700,800,80,5000,500,50,0.00,0.00,-4.00,0.00,0.00,0.00,0.00,0.00,0.00,0.00,0.00,0.00,0.00,0.00,0.00,360.00-,0.00,971.000,547.000,453.000,280.000,708.000,945.000,1955.900,929.508,0.00,0.00,0.00,0,0.90,0.000,0.020,0.000,0.000,0.000,21/09/2017,0.000,0.30,30,8,0.000,0.000,0.000,0.000,1912,PAID,,,0.00,300.00,N,,0.000,00/00/0000,0.000,00/00/0000,0.000,00/00/0000,I,E,6.25,N,N,N,DL02F63L,256,4000,Y,Y,1
3161,ATTOWAL SUB DIVISION,H51CB44,11000000072385398,,PDL02F63L003001_G1P01,H51CB440011M,1500953632,GIAN  SINGH,,JAWALA SINGH,  HARKHOWAL ,DS,FF,N,N,00/00/0000,,,0,3,2,4,N,4000964120,45601,Others,100002173678,1.00,1.00,0.00,04,,,1,0.5,0.000,N,00/00/0000,0.000,LT,LT,0,0,0,12/09/2017,03/07/2017,03/07/2017,1847.000,0.000,0.000,O,2,N,00/00/0000,0.000,0.000,0.00,0.00,0.00,0.00,0.000,0.000,N,00/00/0000,0.000,0.000,0,N,00/00/0000,N,8.00,0.00,,31/12/9999,0.00,0,0.00,4.00,0.00,00/00/0000,00/00/0000,5500,800,80,5000,500,50,0.00,0.00,-3.00,0.00,0.00,0.00,0.00,0.00,0.00,0.00,0.00,0.00,0.00,0.00,0.00,360.00-,0.00,420.000,270.000,123.000,142.000,338.000,323.000,808.900,317.705,0.00,0.00,0.00,0,0.90,0.000,0.020,0.000,0.000,0.000,21/09/2017,0.000,0.30,30,8,0.000,0.000,0.000,0.000,1912,PAID,,,0.00,300.00,N,,0.000,00/00/0000,0.000,00/00/0000,0.000,00/00/0000,I,M,6.25,N,N,N,DL02F63L,0,,Y,Y,1
3161,ATTOWAL SUB DIVISION,H51CB44,12000000072385399,,PDL02F63L003001_G1P01,H51CB440011F,1600953633,GIA  SINGH,,JAWALA SINGH,  HARKHOWAL ,DS,BE,N,N,00/00/0000,,,0,3,2,4,N,4000964121,45601,Others,100002173678,1.00,1.00,0.00,04,,,1,7,0.000,N,00/00/0000,0.000,LT,LT,0,0,1,12/09/2017,03/07/2017,03/07/2017,1847.000,0.000,0.000,O,2,N,00/00/0000,0.000,0.000,0.00,0.00,0.00,0.00,0.000,0.000,N,00/00/0000,0.000,0.000,0,N,00/00/0000,N,8.00,0.00,,31/12/9999,0.00,0,0.00,4.00,0.00,00/00/0000,00/00/0000,5500,800,80,5000,500,50,0.00,0.00,-3.00,0.00,0.00,0.00,0.00,0.00,0.00,0.00,0.00,0.00,0.00,0.00,0.00,360.00-,0.00,420.000,270.000,123.000,142.000,338.000,323.000,808.900,317.705,0.00,0.00,0.00,0,0.90,0.000,0.020,0.000,0.000,0.000,21/09/2017,0.000,0.30,30,8,0.000,0.000,0.000,0.000,1912,PAID,,,0.00,300.00,N,,0.000,00/00/0000,0.000,00/00/0000,0.000,00/00/0000,I,M,6.25,N,N,N,DL02F63L,0,,Y,Y,1
